{
	"id": 1,
	"nome": "testando1",
	"photo": "images/foto-80x80.jpg",
	"gallery": [
				"images/img-teste1.jpg",
				"images/img-teste2.jpg",
				"images/img-teste3.jpg",
				"images/img-teste4.jpg",
				"images/img-teste5.jpg"
				]
}