[
	{ "id": 1, "nome": "testando1", "photo": "images/foto-80x80.jpg"},
	{ "id": 2, "nome": "nome2", "photo": "images/foto-80x80.jpg"},
	{ "id": 3, "nome": "hayane", "photo": "images/foto-80x80.jpg"},
	{ "id": 4, "nome": "nome4", "photo": "images/foto-80x80.jpg"},
	{ "id": 5, "nome": "douglas", "photo": "images/foto-80x80.jpg"},
	{ "id": 6, "nome": "bardez", "photo": "images/foto-80x80.jpg"},
	{ "id": 7, "nome": "nome7", "photo": "images/foto-80x80.jpg"},
	{ "id": 8, "nome": "nome8", "photo": "images/foto-80x80.jpg"},
	{ "id": 9, "nome": "nill", "photo": "images/foto-80x80.jpg"},
	{ "id": 10, "nome": "nome1", "photo": "images/foto-80x80.jpg"},
	{ "id": 11, "nome": "rafael", "photo": "images/foto-80x80.jpg"},
	{ "id": 12, "nome": "hugo", "photo": "images/foto-80x80.jpg"},
	{ "id": 13, "nome": "tdasdo3 asdsadsadas asd as asd", "photo": "images/foto-80x80.jpg"},
	{ "id": 14, "nome": "testanvcxvdo4 sdbfdbdfddfsfdsfdsfdssdfwweq", "photo": "images/foto-80x80.jpg"},
	{ "id": 15, "nome": "testasdasdsadsando5", "photo": "images/foto-80x80.jpg"}
]